<?xml version="1.0" encoding="UTF-8"?>
<svg width="122px" height="174px" viewBox="0 0 122 174" version="1.1" xmlns="http://www.w3.org/2000/svg" xmlns:xlink="http://www.w3.org/1999/xlink">
    <!-- Generator: Sketch 64 (93537) - https://sketch.com -->
    <title>Group 2</title>
    <desc>Created with Sketch.</desc>
    <g id="Page-1" stroke="none" stroke-width="1" fill="none" fill-rule="evenodd">
        <g id="Group-2" transform="translate(-0.497207, 0.000000)" fill="#000000" fill-rule="nonzero">
            <g id="available_bed_gender_free-copy" transform="translate(0.497207, 89.000000)">
                <g id="noun_Hospital-Bed_670825">
                    <g id="Group">
                        <path d="M0.420339052,82.412024 C0.420339052,83.5808129 1.36517197,84.5290521 2.528234,84.5290521 L51.9075331,84.5290521 C56.1171233,84.5290521 59.5405927,81.0874796 59.5405927,76.8608996 L59.5405927,36.6448409 C59.5405927,35.476052 58.5994796,34.5303048 57.4376575,34.5253207 L43.402797,34.4916775 C33.1863887,34.391994 24.4370155,34.4256372 16.6263314,34.4256372 L2.53319376,34.391994 C2.53195382,34.391994 2.52947394,34.391994 2.528234,34.391994 C1.97026181,34.391994 1.4346085,34.6137898 1.04030816,35.0100317 C0.643527929,35.4062735 0.420339052,35.9470565 0.420339052,36.5090222 L0.420339052,82.412024 Z M4.63736889,38.6322805 L55.3260428,38.7568849 L55.3260428,76.8608996 C55.3260428,78.7548859 53.7934791,80.2925037 51.9087731,80.2925037 L4.63736889,80.2925037 L4.63736889,38.6322805 Z" id="Shape"></path>
                        <polygon id="Path" points="32.6438532 49.1052774 28.4268233 49.1052774 28.4268233 56.2824888 21.2847793 56.2824888 21.2847793 60.5190371 28.4268233 60.5190371 28.4268233 67.7012327 32.6438532 67.7012327 32.6438532 60.5190371 39.7846573 60.5190371 39.7846573 56.2824888 32.6438532 56.2824888"></polygon>
                        <path d="M59.5418327,22.7576845 L59.5418327,8.20389472 C59.5418327,3.72312177 55.9150134,0.0796901549 51.4574356,0.0796901549 L8.50473616,0.0796901549 C4.04715831,0.0796901549 0.420339052,3.72312177 0.420339052,8.20389472 L0.420339052,22.7576845 L4.63612895,22.7576845 L4.63612895,8.20389472 C4.63612895,6.05945361 6.3708025,4.31748459 8.50349622,4.31748459 L51.4574356,4.31748459 C53.5901293,4.31748459 55.3248028,6.05945361 55.3248028,8.20389472 L55.3248028,22.7576845 L59.5418327,22.7576845 Z" id="Path"></path>
                    </g>
                </g>
                <g id="noun_Hospital-Bed_670825-Copy" transform="translate(62.215139, 0.000000)">
                    <g id="Group">
                        <path d="M0.420339052,82.412024 C0.420339052,83.5808129 1.36517197,84.5290521 2.528234,84.5290521 L51.9075331,84.5290521 C56.1171233,84.5290521 59.5405927,81.0874796 59.5405927,76.8608996 L59.5405927,36.6448409 C59.5405927,35.476052 58.5994796,34.5303048 57.4376575,34.5253207 L43.402797,34.4916775 C33.1863887,34.391994 24.4370155,34.4256372 16.6263314,34.4256372 L2.53319376,34.391994 C2.53195382,34.391994 2.52947394,34.391994 2.528234,34.391994 C1.97026181,34.391994 1.4346085,34.6137898 1.04030816,35.0100317 C0.643527929,35.4062735 0.420339052,35.9470565 0.420339052,36.5090222 L0.420339052,82.412024 Z M4.63736889,38.6322805 L55.3260428,38.7568849 L55.3260428,76.8608996 C55.3260428,78.7548859 53.7934791,80.2925037 51.9087731,80.2925037 L4.63736889,80.2925037 L4.63736889,38.6322805 Z" id="Shape"></path>
                        <polygon id="Path" points="32.6438532 49.1052774 28.4268233 49.1052774 28.4268233 56.2824888 21.2847793 56.2824888 21.2847793 60.5190371 28.4268233 60.5190371 28.4268233 67.7012327 32.6438532 67.7012327 32.6438532 60.5190371 39.7846573 60.5190371 39.7846573 56.2824888 32.6438532 56.2824888"></polygon>
                        <path d="M59.5418327,22.7576845 L59.5418327,8.20389472 C59.5418327,3.72312177 55.9150134,0.0796901549 51.4574356,0.0796901549 L8.50473616,0.0796901549 C4.04715831,0.0796901549 0.420339052,3.72312177 0.420339052,8.20389472 L0.420339052,22.7576845 L4.63612895,22.7576845 L4.63612895,8.20389472 C4.63612895,6.05945361 6.3708025,4.31748459 8.50349622,4.31748459 L51.4574356,4.31748459 C53.5901293,4.31748459 55.3248028,6.05945361 55.3248028,8.20389472 L55.3248028,22.7576845 L59.5418327,22.7576845 Z" id="Path"></path>
                    </g>
                </g>
            </g>
            <g id="available_bed_gender_free-copy-2" transform="translate(0.497207, 0.000000)">
                <g id="noun_Hospital-Bed_670825">
                    <g id="Group">
                        <path d="M0.420339052,82.412024 C0.420339052,83.5808129 1.36517197,84.5290521 2.528234,84.5290521 L51.9075331,84.5290521 C56.1171233,84.5290521 59.5405927,81.0874796 59.5405927,76.8608996 L59.5405927,36.6448409 C59.5405927,35.476052 58.5994796,34.5303048 57.4376575,34.5253207 L43.402797,34.4916775 C33.1863887,34.391994 24.4370155,34.4256372 16.6263314,34.4256372 L2.53319376,34.391994 C2.53195382,34.391994 2.52947394,34.391994 2.528234,34.391994 C1.97026181,34.391994 1.4346085,34.6137898 1.04030816,35.0100317 C0.643527929,35.4062735 0.420339052,35.9470565 0.420339052,36.5090222 L0.420339052,82.412024 Z M4.63736889,38.6322805 L55.3260428,38.7568849 L55.3260428,76.8608996 C55.3260428,78.7548859 53.7934791,80.2925037 51.9087731,80.2925037 L4.63736889,80.2925037 L4.63736889,38.6322805 Z" id="Shape"></path>
                        <polygon id="Path" points="32.6438532 49.1052774 28.4268233 49.1052774 28.4268233 56.2824888 21.2847793 56.2824888 21.2847793 60.5190371 28.4268233 60.5190371 28.4268233 67.7012327 32.6438532 67.7012327 32.6438532 60.5190371 39.7846573 60.5190371 39.7846573 56.2824888 32.6438532 56.2824888"></polygon>
                        <path d="M59.5418327,22.7576845 L59.5418327,8.20389472 C59.5418327,3.72312177 55.9150134,0.0796901549 51.4574356,0.0796901549 L8.50473616,0.0796901549 C4.04715831,0.0796901549 0.420339052,3.72312177 0.420339052,8.20389472 L0.420339052,22.7576845 L4.63612895,22.7576845 L4.63612895,8.20389472 C4.63612895,6.05945361 6.3708025,4.31748459 8.50349622,4.31748459 L51.4574356,4.31748459 C53.5901293,4.31748459 55.3248028,6.05945361 55.3248028,8.20389472 L55.3248028,22.7576845 L59.5418327,22.7576845 Z" id="Path"></path>
                    </g>
                </g>
                <g id="noun_Hospital-Bed_670825-Copy" transform="translate(62.215139, 0.000000)">
                    <g id="Group">
                        <path d="M0.420339052,82.412024 C0.420339052,83.5808129 1.36517197,84.5290521 2.528234,84.5290521 L51.9075331,84.5290521 C56.1171233,84.5290521 59.5405927,81.0874796 59.5405927,76.8608996 L59.5405927,36.6448409 C59.5405927,35.476052 58.5994796,34.5303048 57.4376575,34.5253207 L43.402797,34.4916775 C33.1863887,34.391994 24.4370155,34.4256372 16.6263314,34.4256372 L2.53319376,34.391994 C2.53195382,34.391994 2.52947394,34.391994 2.528234,34.391994 C1.97026181,34.391994 1.4346085,34.6137898 1.04030816,35.0100317 C0.643527929,35.4062735 0.420339052,35.9470565 0.420339052,36.5090222 L0.420339052,82.412024 Z M4.63736889,38.6322805 L55.3260428,38.7568849 L55.3260428,76.8608996 C55.3260428,78.7548859 53.7934791,80.2925037 51.9087731,80.2925037 L4.63736889,80.2925037 L4.63736889,38.6322805 Z" id="Shape"></path>
                        <polygon id="Path" points="32.6438532 49.1052774 28.4268233 49.1052774 28.4268233 56.2824888 21.2847793 56.2824888 21.2847793 60.5190371 28.4268233 60.5190371 28.4268233 67.7012327 32.6438532 67.7012327 32.6438532 60.5190371 39.7846573 60.5190371 39.7846573 56.2824888 32.6438532 56.2824888"></polygon>
                        <path d="M59.5418327,22.7576845 L59.5418327,8.20389472 C59.5418327,3.72312177 55.9150134,0.0796901549 51.4574356,0.0796901549 L8.50473616,0.0796901549 C4.04715831,0.0796901549 0.420339052,3.72312177 0.420339052,8.20389472 L0.420339052,22.7576845 L4.63612895,22.7576845 L4.63612895,8.20389472 C4.63612895,6.05945361 6.3708025,4.31748459 8.50349622,4.31748459 L51.4574356,4.31748459 C53.5901293,4.31748459 55.3248028,6.05945361 55.3248028,8.20389472 L55.3248028,22.7576845 L59.5418327,22.7576845 Z" id="Path"></path>
                    </g>
                </g>
            </g>
        </g>
    </g>
</svg>